{
  "data": [
    {
      "id": "3fa85f64-5717-4562-b3fc-2c963f66afa6",
      "name": "Example Venue",
      "primary_category": {
        "id": "a1b2c3d4-e5f6-4g7h-8i9j-0k1l2m3n4o5p",
        "name": "Lounge",
        "description": "Sophisticated venues with cocktails, small plates, and live music",
        "icon": "🛋️"
      },
      "secondary_category": {
        "id": "b2c3d4e5-f6g7-4h8i-9j0k-1l2m3n4o5p6q",
        "name": "Bar",
        "description": "Venues focused on drinks and nightlife",
        "icon": "🍸"
      },
      "description": "A modern event space suitable for conferences and social gatherings.",
      "phone_number": "+1-555-123-4567",
      "website": "https://www.examplevenue.com",
      "email": "contact@examplevenue.com",
      "profile_image": "https://www.examplevenue.com/images/profile.jpg",
      "street_address": "123 Main Street",
      "secondary_address": "Suite 100",
      "locality": "Los Angeles",
      "region": "California",
      "postal_code": "90210",
      "country": "United States",
      "location": {
        "coordinates": [
          -118.2437,
          34.0522
        ],
        "srid": 4326
      },
      "time_zone_id": "America/Los_Angeles",
      "todays_operating_schedule": {
        "day_of_week": {
          "id": "7p8q9r0s-1t2u-3v4w-5x6y-7z8a9b0c1d2e",
          "name": "Friday",
          "short_name": "FRI",
          "iso_number": 5,
          "is_weekday": true,
          "sort_order": 6
        },
        "business_hours": {
          "id": "g7h8i9j0-k1l2-4m3n-4o5p-6q7r8s9t0u1v",
          "open_time": "09:00:00",
          "close_time": "17:00:00",
          "is_closed": false,
          "created_at": "2025-07-23T09:00:00Z",
          "updated_at": "2025-07-23T09:00:00Z"
        }
      },
      "is_active": true,
      "analytics": {
        "total_menus": 2,
        "total_schedules": 3,
        "active_schedules": 3,
        "running_schedules": 2
      },
      "created_at": "2025-07-25T08:00:00Z",
      "updated_at": "2025-07-25T08:00:00Z"
    },
    {
      "id": "4gb95g75-6828-5673-c4gd-3d074g77bgb7",
      "name": "Sample Pub",
      "primary_category": {
        "id": "c3d4e5f6-g7h8-4i9j-0k1l-2m3n4o5p6q7r",
        "name": "Pub",
        "description": "Casual venues with food, drinks, and often live music",
        "icon": "🍺"
      },
      "secondary_category": {
        "id": "d4e5f6g7-h8i9-4j0k-1l2m-3n4o5p6q7r8s",
        "name": "Brewery",
        "description": "Venues brewing their own beer, often with food and live music",
        "icon": "🍻"
      },
      "description": "A cozy pub offering craft beers and pub grub.",
      "phone_number": "+1-555-555-6543",
      "website": "https://www.samplepub.com",
      "email": "info@samplepub.com",
      "profile_image": "https://www.samplepub.com/images/profile.jpg",
      "street_address": "456 Elm Street",
      "secondary_address": null,
      "locality": "New York City",
      "region": "New York",
      "postal_code": "10001",
      "country": "United States",
      "location": {
        "coordinates": [
          -74.0059,
          40.7128
        ],
        "srid": 4326
      },
      "time_zone_id": "America/New_York",
      "todays_operating_schedule": {
        "day_of_week": {
          "id": "7p8q9r0s-1t2u-3v4w-5x6y-7z8a9b0c1d2e",
          "name": "Friday",
          "short_name": "FRI",
          "iso_number": 5,
          "is_weekday": true,
          "sort_order": 6
        },
        "business_hours": {
          "id": "e5f6g7h8-i9j0-4k1l-2m3n-4o5p6q7r8s9t",
          "open_time": "11:00:00",
          "close_time": "23:00:00",
          "is_closed": false,
          "created_at": "2025-07-25T11:00:00Z",
          "updated_at": "2025-07-25T11:00:00Z"
        }
      },
      "is_active": true,
      "analytics": {
        "total_menus": 4,
        "total_schedules": 6,
        "active_schedules": 5,
        "running_schedules": 3
      },
      "created_at": "2025-07-25T10:00:00Z",
      "updated_at": "2025-07-25T10:00:00Z"
    },
    {
      "id": "5hc06h86-7939-6784-d5he-4e185h88chc8",
      "name": "Demo Cafe",
      "primary_category": {
        "id": "f6g7h8i9-j0k1-4l2m-3n4o-5p6q7r8s9t0u",
        "name": "Cafe",
        "description": "Casual spots for coffee and light meals",
        "icon": "☕"
      },
      "secondary_category": {
        "id": "g7h8i9j0-k1l2-4m3n-4o5p-6q7r8s9s0t1u",
        "name": "Bistro",
        "description": "Intimate dining venues with quality food, wine, and occasional live music",
        "icon": "🥂"
      },
      "description": "A quaint cafe serving artisanal coffees and pastries.",
      "phone_number": "+1-555-456-7890",
      "website": "https://www.democafe.com",
      "email": "hello@democafe.com",
      "profile_image": "https://www.democafe.com/images/profile.jpg",
      "street_address": "789 Oak Avenue",
      "secondary_address": "Floor 2",
      "locality": "Chicago",
      "region": "Illinois",
      "postal_code": "60601",
      "country": "United States",
      "location": {
        "coordinates": [
          -87.6298,
          41.8781
        ],
        "srid": 4326
      },
      "time_zone_id": "America/Chicago",
      "todays_operating_schedule": {
        "day_of_week": {
          "id": "7p8q9r0s-1t2u-3v4w-5x6y-7z8a9b0c1d2e",
          "name": "Friday",
          "short_name": "FRI",
          "iso_number": 5,
          "is_weekday": true,
          "sort_order": 6
        },
        "business_hours": {
          "id": "h8i9j0k1-l2m3-4n4o-5p6q-7r8s9t0u1v2w",
          "open_time": "07:00:00",
          "close_time": "18:00:00",
          "is_closed": false,
          "created_at": "2025-07-25T07:00:00Z",
          "updated_at": "2025-07-25T07:00:00Z"
        }
      },
      "is_active": false,
      "analytics": {
        "total_menus": 1,
        "total_schedules": 2,
        "active_schedules": 1,
        "running_schedules": 0
      },
      "created_at": "2025-07-25T06:00:00Z",
      "updated_at": "2025-07-25T06:00:00Z"
    }
  ],
  "paging_info": {
    "current_page": 1,
    "total_pages": 5,
    "total_items": 100,
    "per_page": 20,
    "has_next": true,
    "has_previous": false
  }
}